Movie Data Clustering Analysis
…
table(movie_pred2,movie$review)

##                  
## movie_pred2       NOT RECOMMENDED RECOMMENDED
##   NOT RECOMMENDED             180          70
##   RECOMMENDED                  34         111

SVM Algorithm

For SVM, I will use the same train and test split in the previous method for comparison. SVM performed better than KNN in both train and test data. At this point of level, I will use SVM(Suport vector machine) as my final model for classification here.

movie2 <- fastDummies::dummy_cols(movie,remove_first_dummy = TRUE)
movie2[,-12]

## # A tibble: 395 x 12
##     gross review budget screens sequel sentiment  views likes dislikes comments
##     <dbl> <fct>   <dbl>   <dbl> <fct>      <dbl>  <dbl> <dbl>    <dbl>    <dbl>
##  1 9.13e3 NOT R 4.00e6      45 Main           0 3.28e6  4632      425      636
##  2 1.92e8 RECOM 5.00e7    3306 Sequel         2 5.83e5  3465       61      186
##  3 3.07e7 NOT R 2.80e7    2872 Main           0 3.05e5   328       34       47
##  4 1.06e8 NOT R 1.10e8    3470 Sequel         0 4.53e5  2429      132      590
##  5 1.73e7 NOT R 3.50e6    2310 Sequel         0 3.15e6 12163      610     1082
##  6 2.90e4 NOT R 5.00e5    1507 Main           0 9.11e4   112        7        1
##  7 4.26e7 NOT R 4.00e7    3158 Main           0 3.01e6  9595      419     1020
##  8 5.75e6 RECOM 2.00e7     818 Main           2 1.85e6  2207      197      593
##  9 2.60e7 NOT R 2.80e7    2714 Main           3 2.21e6  2210      419      382
## 10 4.86e7 NOT R 1.25e7    2253 Main           0 5.22e6 11709      532      770
## #  with 385 more rows, and 2 more variables: followers <dbl>,
## #   sequel_Sequel <int>
…
